{
  "db": {
    "username": "root",
    "password": "",
    "database": "golos_dev",
    "host": "127.0.0.1",
    "dialect": "mysql"
  },
  "session_cookie_key": "golos-dev",
  "session_key": "golosses",
  "server_session_secret": "BXDCLbV5MChv5xxvB/01ZbFW6nNgDWZXWyyDSFlpWyo=",
  "grant": {
    "server": {
      "protocol": "http",
      "host": "localhost:3002"
    },
    "facebook": {
      "key": "",
      "secret": "",
      "callback": "/handle_facebook_callback",
      "scope": [
        "email",
        "user_location"
      ]
    },
    "reddit": {
      "key": "",
      "secret": "",
      "callback": "/handle_reddit_callback",
      "custom_params": {"state": "void", "duration": "temporary"},
      "scope": [
        "identity"
      ]
    }
  },
  "helmet": {
  },
  "registrar": {
    "account": "-",
    "signing_key": "-",
    "fee": "5.000 STEEM"
  },
  "requestAccountRecovery": {
    "signing_key": "5J.....",
    "recovery_account": "golos"
  },
  "ws_connection_client": "wss://ws.golos.io",
  "ws_connection_server": [
    "wss://ws.golos.io"
  ],
  "sendgrid": {
    "key": "SG.xxx_yyyy",
    "from": "noreply@example.com",
    "templates": {
      "confirm_email": "some_template_id"
    }
  },
  "telesign": {
      "customer_id": "",
      "rest_api_key": ""
  },
  "recaptcha": {
    "site_key": "",
    "secret_key": ""
  },
  "tarantool": {
    "host": "localhost",
    "port": 3301,
    "username": "guest",
    "password": ""
  },
  "img_proxy_prefix": "",
  "ipfs_prefix": "",
  "disable_signups": false,
  "read_only_mode": false,
  "uploadImage": "https://..."
}
